…
``` r
allData %>% count(strana_nazev)
```

    ## # A tibble: 124 x 2
    ##    strana_nazev     n
    ##    <chr>        <int>
    ##  1 "\"KČ\""       103
    ##  2 "4 VIZE"        28
    ##  3 "A2000"          8
    ##  4 "ANEO"          11
    ##  5 "ANO"          685
    ##  6 "ANO 2011"     341
    ##  7 "ANS"          208
    ##  8 "APB"          343
    ##  9 "AZSD"          26
    ## 10 "BPI"          273
    ## # ... with 114 more rows
…
